Hands-On Machine Learning with R, 2ed - 2 First model with Tidymodels
…
2.3.1 Knowledge check

If you haven’t already done so, create a 70-30 stratified train-test split on the attrition data (note: Attrition is the response variable).

Using the logistic_reg() model object, fit a model using Age, DistanceFromHome, and JobLevel as the features.

Now train a K-nearest neighbor model using the ‘kknn’ engine and be sure to set the mode to be a classification model.

2.4 Making predictions

We have fit a few different models. Now, if we want to see our predictions we can simply apply predict() and feed it the data set we want to make predictions on. Here, we can see the predictions made on our training data for our ordinary least square linear regression model.

lm_ols %>% predict(train)
## # A tibble: 2,051 × 1
##      .pred
##      <dbl>
##  1 217657.
##  2 214276.
##  3 223425.
##  4 260324.
##  5 109338.
##  6 195106.
##  7 222217.
##  8 126175.
##  9  98550.
## 10 120811.
## # ℹ 2,041 more rows

And here we get the predicted values for our KNN model.

knn %>% predict(train)
## # A tibble: 2,051 × 1
##      .pred
##      <dbl>
##  1 194967.
##  2 192240 
##  3 174220 
##  4 269760 
##  5 113617.
##  6 173672 
##  7 174820 
##  8 120796 
##  9 114560 
## 10 121346 
## # ℹ 2,041 more rows

A similar process can be applied to make predictions for a classification model. For example, the following trains a classification model that predicts whether an employee will attrit based on their age. When we make predictions, the output is the predicted class (employee attrition is Yes or No).

simple_logit <- logistic_reg() %>%
   fit(Attrition ~ Age, data = train_strat)

simple_logit %>% predict(train_strat)
## # A tibble: 1,028 × 1
##    .pred_class
##    <fct>      
##  1 No         
##  2 No         
##  3 No         
##  4 No         
##  5 No         
##  6 No         
##  7 No         
##  8 No         
##  9 No         
## 10 No         
## # ℹ 1,018 more rows

In general, machine learning classifiers don’t just give binary predictions, but instead provide some numerical value between 0 and 1 for their predictions. This number, sometimes called the model score or confidence, is a way for the model to express their certainty about what class the input data belongs to. In most applications, the exact probability is ignored and we use a threshold (typically \(\geq 0.5\)) to round the score to a binary answer, yes or no, employee attrition or not attrition. But in some cases we do want the prediction probabilities and we can get those by adding type = "prob" to our predict call.

simple_logit %>% predict(train_strat, type = "prob")
## # A tibble: 1,028 × 2
##    .pred_Yes .pred_No
##        <dbl>    <dbl>
##  1    0.178     0.822
##  2    0.0485    0.952
##  3    0.204     0.796
##  4    0.155     0.845
##  5    0.162     0.838
##  6    0.213     0.787
##  7    0.195     0.805
##  8    0.213     0.787
##  9    0.0664    0.934
## 10    0.141     0.859
## # ℹ 1,018 more rows
…
Using the logistic regression model you trained in the previous exercise, make predictions on the attrition training data.

Now make predictions using the K-nearest neighbor model.

2.5 Model evaluation

Historically, the performance of statistical models was largely based on goodness-of-fit tests and assessment of residuals. Unfortunately, misleading conclusions may follow from predictive models that pass these kinds of assessments (Breiman et al. 2001). Today, it has become widely accepted that a more sound approach to assessing model performance is to assess the predictive accuracy via loss functions. Loss functions are metrics that compare the predicted values to the actual value (the output of a loss function is often referred to as the error or pseudo residual).

If we look at our predicted outputs for our ordinary least squares model, we can see that the predicted home value (.pred) was $149,091 for the first observation and the actual home value was $172,000, resulting in an error of nearly $23,000. The objective of the loss function is to aggregate the prediction errors for all the observations into a meaningful single value metric.

lm_ols %>%
   predict(test) %>%
   bind_cols(test %>% select(Sale_Price)) %>%
   mutate(prediction_error = Sale_Price - .pred)
## # A tibble: 879 × 3
##      .pred Sale_Price prediction_error
##      <dbl>      <int>            <dbl>
##  1 149091.     172000           22909.
##  2 219596.     195500          -24096.
##  3 195491.     212000           16509.
##  4  97418.     141000           43582.
##  5 152195.     170000           17805.
##  6 134471.     142000            7529.
##  7 119697.     115000           -4697.
##  8 195517.     184000          -11517.
##  9 141210.      88000          -53210.
## 10 239057.     306000           66943.
## # ℹ 869 more rows
…
