3 Linear regression – Hands-On Machine Learning with R, 2ed
…
Independent observations

The random errors have mean zero, and constant variance

The random errors are normally distributed

If any or all of these assumptions are violated, then remedial measures need to be taken. For instance, weighted least squares (and other procedures) can be used when the constant variance assumption is violated. Transformations (of both the response and features) can also help to correct departures from these assumptions. The residuals are extremely useful in helping to identify how parametric models depart from such assumptions.

3.3.4 Making predictions

We’ve created a simple linear regression model to describe the relationship between Gr_Liv_Area and Sale_Price. As we saw in the last chapter, we can make predictions with this model.

model1 %>%
   predict(ames_train)
## # A tibble: 2,049 × 1
##      .pred
##      <dbl>
##  1 135695.
##  2 135695.
##  3 107620.
##  4  98408.
##  5 126922.
##  6 224526.
##  7 114639.
##  8 129992.
##  9 205444.
## 10 132515.
## # ℹ 2,039 more rows

And we can always add these predictions back to our training data if we want to look at how the predicted values differ from the actual values.

model1 %>%
   predict(ames_train) %>%
   bind_cols(ames_train) %>%
   select(Gr_Liv_Area, Sale_Price, .pred)
## # A tibble: 2,049 × 3
##    Gr_Liv_Area Sale_Price   .pred
##          <int>      <int>   <dbl>
##  1        1092     105500 135695.
##  2        1092      88000 135695.
##  3         836     120000 107620.
##  4         752     125000  98408.
##  5        1012      67500 126922.
##  6        1902     112000 224526.
##  7         900     122000 114639.
##  8        1040     127000 129992.
##  9        1728      84900 205444.
## 10        1063     128000 132515.
## # ℹ 2,039 more rows
…
